{
 "Rae.hi": "Said: %(make_greeting %{tpl}%, %{Rae.name}%)%, by Jane.",
 "Rae.name": "%(full_name %{persons.Rae}%)%",
 "persons.Rae.forename": "Rae",
 "persons.Rae.id": "303",
 "persons.Rae.surname": "Mayer",
 "persons.all": [
  {
   "forename": "Jane",
   "id": "101",
   "surname": "Doe"
  },
  {
   "forename": "Rick",
   "id": "202",
   "surname": "Roe"
  },
  "%{persons.Rae}%"
 ],
 "say": "%(make_greetings %{tpl}%, %(full_names %{persons.all}%)%)%",
 "tpl": "Hello, dear {}!"
}