{
 "Rae.hi": "Said: Hello, dear Rae Mayer!, by Jane.",
 "Rae.name": "Rae Mayer",
 "persons.Rae.forename": "Rae",
 "persons.Rae.id": "303",
 "persons.Rae.surname": "Mayer",
 "persons.all": [
  {
   "forename": "Jane",
   "id": "101",
   "surname": "Doe"
  },
  {
   "forename": "Rick",
   "id": "202",
   "surname": "Roe"
  },
  {
   "forename": "Rae",
   "id": "303",
   "surname": "Mayer"
  }
 ],
 "say": [
  "Hello, dear Jane Doe!",
  "Hello, dear Rick Roe!",
  "Hello, dear Rae Mayer!"
 ],
 "tpl": "Hello, dear {}!"
}